TODO:

Adding user needs error feedback.

add table of users in the user admin pane then add roles



modules:
accounts-password            1.1.1  Password support for accounts
alanning:roles               1.2.13  Role-based authorization
email                        1.0.6  Send email messages
fortawesome:fontawesome      4.3.0  Font Awesome (official): 500+ scalable ve...
ian:accounts-ui-bootstrap-3  1.2.76  Bootstrap-styled accounts-ui with multi-...
iron:router                  1.0.9  Routing specifically designed for Meteor
meteor-platform              1.2.2  Include a standard set of Meteor packages...
twbs:bootstrap               3.3.5  The most popular front-end framework for ...


"_id" : "khpZ6BJ9PcW5hdY2i",
"createdAt" : ISODate("2015-07-22T10:41:57.224Z"),
"services" : { "password" : { "reset" : { "token" : "wT8TCTBYke03Cb8a3E5l7_7G0m2TNnBbsoNy9qRKKvI", "email" : "asdf@fasdf.edu", "when" : ISODate("2015-07-22T10:41:57.228Z") } } },
"emails" : [ { "address" : "asdf@fasdf.edu", "verified" : false } ],
"profile" : { "userName" : "asdf asdf asff",
"organization" : "asdf",
"userPhone" : "555-55-5555" } }


{ "_id" : "BzEeJAJSyKbZbCQr7",
"createdAt" : ISODate("2015-08-10T19:38:22.931Z"),
"services" : { "password" : { "reset" : { "token" : "-vZ8kFiiGe1gUC3pFxCIMoCwjz_PsskfDHuEobJCmA9",
  "email" : "asdf@masdf.edu",
  "when" : ISODate("2015-08-10T19:38:22.933Z") } } },
"emails" : [ { "address" : "asdf@masdf.edu", "verified" : false } ],
"profile" : { "userName" : "asdf asdf asf",
  "organization" : "First organization",
  "userPhone" : "555-555-5555" },
  "roles" : [ "Admin" ] }
